{
  "name": "Wellbeeing.org",
  "version": "1.0.0",
  "description": "The bee's WellBeeing, is our WellBeeing!",
  "author": "Jasper Kuipers",
  "private": true,
  "scripts": {
    "lint": "eslint --ext .ts,.js,.vue --ignore-path .gitignore .",
    "precommit": "yarn run lint",
    "dev": "nuxt-ts",
    "build": "nuxt-ts build",
    "start": "ts-node server.ts",
    "generate": "nuxt-ts generate"
  },
  "dependencies": {
    "@nuxt/typescript-runtime": "^0.1.3",
    "@nuxtjs/axios": "^5.6.0",
    "@nuxtjs/pwa": "^3.0.0-beta.19",
    "@types/vuelidate": "^0.7.9",
    "@typescript-eslint/parser": "^2.13.0",
    "bootstrap-vue": "^2.3.0",
    "cross-env": "^5.2.0",
    "dotenv": "^8.2.0",
    "express": "^4.17.1",
    "node-cache": "^5.1.0",
    "node-sass": "^4.13.1",
    "nuxt": "^2.9.1",
    "nuxt-property-decorator": "^2.5.0",
    "sass-loader": "^8.0.0",
    "ts-node": "^8.6.2",
    "typescript": "^3.8.2",
    "vue-i18n": "^8.15.3",
    "vue-mixin-decorator": "^1.2.0",
    "vue-property-decorator": "^8.2.2",
    "vue-scrollto": "^2.17.1",
    "vuelidate": "^0.7.4",
    "vuex-class": "^0.3.2"
  },
  "devDependencies": {
    "@nuxt/typescript-build": "^0.1.11",
    "@nuxtjs/eslint-config": "^0.0.1",
    "@nuxtjs/eslint-module": "^1.0.0",
    "@nuxtjs/svg-sprite": "^0.4.7",
    "babel-eslint": "^10.0.3",
    "eslint": "^6.2.2",
    "eslint-config-standard": ">=13.0.1",
    "eslint-plugin-import": ">=2.18.2",
    "eslint-plugin-jest": ">=22.15.0",
    "eslint-plugin-json": "^2.0.1",
    "eslint-plugin-node": ">=9.1.0",
    "eslint-plugin-nuxt": ">=0.4.3",
    "eslint-plugin-promise": ">=4.2.1",
    "eslint-plugin-standard": ">=4.0.0",
    "eslint-plugin-vue": "^5.2.3"
  }
}
